{
  "key": "deploy-to-azure",
  "name": "Deploy to Azure",
  "description": "Deploy directly to Azure App Service from your repo.",
  "baseUrl": "https://deploy.azure.com/",
  "modules": {
    "webItems": [
    {
      "key": "deploy-pr-summary-actions",
      "name": {
        "value": "Deploy to Azure"
      },
      "url": "?repository=https://bitbucket.org/{repo_path}?pr={pullrequest_id}&manual=false",
      "location": "org.bitbucket.pullrequest.summary.actions",
      "params": {
        "auiIcon": "aui-iconfont-deploy"
      }
    }, 
    {
      "key": "deploy-branch-summary-actions",
      "name": {
        "value": "Deploy to Azure"
      },
      "url": "?repository=https://bitbucket.org/{repo_path}?at={branch_name}&manual=false",
      "location": "org.bitbucket.branch.summary.actions",
      "params": {
        "auiIcon": "aui-iconfont-deploy"
      }
    }],
    "oauthConsumer": {
      "clientId": "mTtxPsNvT4vcn4j4qu"
    }
  },
  "scopes": ["repository"],
  "contexts": ["personal"],
  "authentication": {"type": "none"}
}